hw/hw4/hw4_1/dump.vcd
$date
	Fri Feb 22 17:15:27 2019
$end
$version
	ModelSim Version 10.4a
$end
$timescale
	1ns
$end

$scope module barrelShifter_hier_bench $end
$var parameter 32 ! N $end
$var parameter 32 " C $end
$var parameter 32 # O $end
$var reg 16 $ In [15:0] $end
$var reg 4 % Cnt [3:0] $end
$var reg 2 & Op [1:0] $end
$var wire 1 ' Out [15] $end
$var wire 1 ( Out [14] $end
$var wire 1 ) Out [13] $end
$var wire 1 * Out [12] $end
$var wire 1 + Out [11] $end
$var wire 1 , Out [10] $end
$var wire 1 - Out [9] $end
$var wire 1 . Out [8] $end
$var wire 1 / Out [7] $end
$var wire 1 0 Out [6] $end
$var wire 1 1 Out [5] $end
$var wire 1 2 Out [4] $end
$var wire 1 3 Out [3] $end
$var wire 1 4 Out [2] $end
$var wire 1 5 Out [1] $end
$var wire 1 6 Out [0] $end
$var reg 1 7 fail $end
$var reg 32 8 Expected [31:0] $end
$var integer 32 9 idx $end

$scope module DUT $end
$var parameter 32 : N $end
$var parameter 32 ; C $end
$var parameter 32 < O $end
$var wire 1 = In [15] $end
$var wire 1 > In [14] $end
$var wire 1 ? In [13] $end
$var wire 1 @ In [12] $end
$var wire 1 A In [11] $end
$var wire 1 B In [10] $end
$var wire 1 C In [9] $end
$var wire 1 D In [8] $end
$var wire 1 E In [7] $end
$var wire 1 F In [6] $end
$var wire 1 G In [5] $end
$var wire 1 H In [4] $end
$var wire 1 I In [3] $end
$var wire 1 J In [2] $end
$var wire 1 K In [1] $end
$var wire 1 L In [0] $end
$var wire 1 M Cnt [3] $end
$var wire 1 N Cnt [2] $end
$var wire 1 O Cnt [1] $end
$var wire 1 P Cnt [0] $end
$var wire 1 Q Op [1] $end
$var wire 1 R Op [0] $end
$var wire 1 ' Out [15] $end
$var wire 1 ( Out [14] $end
$var wire 1 ) Out [13] $end
$var wire 1 * Out [12] $end
$var wire 1 + Out [11] $end
$var wire 1 , Out [10] $end
$var wire 1 - Out [9] $end
$var wire 1 . Out [8] $end
$var wire 1 / Out [7] $end
$var wire 1 0 Out [6] $end
$var wire 1 1 Out [5] $end
$var wire 1 2 Out [4] $end
$var wire 1 3 Out [3] $end
$var wire 1 4 Out [2] $end
$var wire 1 5 Out [1] $end
$var wire 1 6 Out [0] $end
$var wire 1 S clk $end
$var wire 1 T rst $end
$var wire 1 U err $end

$scope module c0 $end
$var reg 1 V clk $end
$var reg 1 W rst $end
$var wire 1 U err $end
$var integer 32 X cycle_count $end
$upscope $end

$scope module s0 $end
$var parameter 32 Y N $end
$var parameter 32 Z C $end
$var parameter 32 [ O $end
$var wire 1 = In [15] $end
$var wire 1 > In [14] $end
$var wire 1 ? In [13] $end
$var wire 1 @ In [12] $end
$var wire 1 A In [11] $end
$var wire 1 B In [10] $end
$var wire 1 C In [9] $end
$var wire 1 D In [8] $end
$var wire 1 E In [7] $end
$var wire 1 F In [6] $end
$var wire 1 G In [5] $end
$var wire 1 H In [4] $end
$var wire 1 I In [3] $end
$var wire 1 J In [2] $end
$var wire 1 K In [1] $end
$var wire 1 L In [0] $end
$var wire 1 M Cnt [3] $end
$var wire 1 N Cnt [2] $end
$var wire 1 O Cnt [1] $end
$var wire 1 P Cnt [0] $end
$var wire 1 Q Op [1] $end
$var wire 1 R Op [0] $end
$var wire 1 ' Out [15] $end
$var wire 1 ( Out [14] $end
$var wire 1 ) Out [13] $end
$var wire 1 * Out [12] $end
$var wire 1 + Out [11] $end
$var wire 1 , Out [10] $end
$var wire 1 - Out [9] $end
$var wire 1 . Out [8] $end
$var wire 1 / Out [7] $end
$var wire 1 0 Out [6] $end
$var wire 1 1 Out [5] $end
$var wire 1 2 Out [4] $end
$var wire 1 3 Out [3] $end
$var wire 1 4 Out [2] $end
$var wire 1 5 Out [1] $end
$var wire 1 6 Out [0] $end
$var wire 1 \ out_bus [0] $end
$var wire 1 ] out_bus [1] $end
$var wire 1 ^ out_bus [2] $end
$var wire 1 _ out_bus [3] $end
$var wire 1 ` out_bus [4] $end
$var wire 1 a out_bus [5] $end
$var wire 1 b out_bus [6] $end
$var wire 1 c out_bus [7] $end
$var wire 1 d out_bus [8] $end
$var wire 1 e out_bus [9] $end
$var wire 1 f out_bus [10] $end
$var wire 1 g out_bus [11] $end
$var wire 1 h out_bus [12] $end
$var wire 1 i out_bus [13] $end
$var wire 1 j out_bus [14] $end
$var wire 1 k out_bus [15] $end
$var wire 1 l out_bus [16] $end
$var wire 1 m out_bus [17] $end
$var wire 1 n out_bus [18] $end
$var wire 1 o out_bus [19] $end
$var wire 1 p out_bus [20] $end
$var wire 1 q out_bus [21] $end
$var wire 1 r out_bus [22] $end
$var wire 1 s out_bus [23] $end
$var wire 1 t out_bus [24] $end
$var wire 1 u out_bus [25] $end
$var wire 1 v out_bus [26] $end
$var wire 1 w out_bus [27] $end
$var wire 1 x out_bus [28] $end
$var wire 1 y out_bus [29] $end
$var wire 1 z out_bus [30] $end
$var wire 1 { out_bus [31] $end
$var wire 1 | out_bus [32] $end
$var wire 1 } out_bus [33] $end
$var wire 1 ~ out_bus [34] $end
$var wire 1 !! out_bus [35] $end
$var wire 1 "! out_bus [36] $end
$var wire 1 #! out_bus [37] $end
$var wire 1 $! out_bus [38] $end
$var wire 1 %! out_bus [39] $end
$var wire 1 &! out_bus [40] $end
$var wire 1 '! out_bus [41] $end
$var wire 1 (! out_bus [42] $end
$var wire 1 )! out_bus [43] $end
$var wire 1 *! out_bus [44] $end
$var wire 1 +! out_bus [45] $end
$var wire 1 ,! out_bus [46] $end
$var wire 1 -! out_bus [47] $end

$scope module row_1 $end
$var parameter 32 .! N $end
$var parameter 32 /! O $end
$var parameter 32 0! S $end
$var wire 1 = In [15] $end
$var wire 1 > In [14] $end
$var wire 1 ? In [13] $end
$var wire 1 @ In [12] $end
$var wire 1 A In [11] $end
$var wire 1 B In [10] $end
$var wire 1 C In [9] $end
$var wire 1 D In [8] $end
$var wire 1 E In [7] $end
$var wire 1 F In [6] $end
$var wire 1 G In [5] $end
$var wire 1 H In [4] $end
$var wire 1 I In [3] $end
$var wire 1 J In [2] $end
$var wire 1 K In [1] $end
$var wire 1 L In [0] $end
$var wire 1 P Shift $end
$var wire 1 Q Op [1] $end
$var wire 1 R Op [0] $end
$var reg 16 1! Out [15:0] $end
$upscope $end

$scope module row_2 $end
$var parameter 32 2! N $end
$var parameter 32 3! O $end
$var parameter 32 4! S $end
$var wire 1 -! In [15] $end
$var wire 1 ,! In [14] $end
$var wire 1 +! In [13] $end
$var wire 1 *! In [12] $end
$var wire 1 )! In [11] $end
$var wire 1 (! In [10] $end
$var wire 1 '! In [9] $end
$var wire 1 &! In [8] $end
$var wire 1 %! In [7] $end
$var wire 1 $! In [6] $end
$var wire 1 #! In [5] $end
$var wire 1 "! In [4] $end
$var wire 1 !! In [3] $end
$var wire 1 ~ In [2] $end
$var wire 1 } In [1] $end
$var wire 1 | In [0] $end
$var wire 1 O Shift $end
$var wire 1 Q Op [1] $end
$var wire 1 R Op [0] $end
$var reg 16 5! Out [15:0] $end
$upscope $end

$scope module row_4 $end
$var parameter 32 6! N $end
$var parameter 32 7! O $end
$var parameter 32 8! S $end
$var wire 1 { In [15] $end
$var wire 1 z In [14] $end
$var wire 1 y In [13] $end
$var wire 1 x In [12] $end
$var wire 1 w In [11] $end
$var wire 1 v In [10] $end
$var wire 1 u In [9] $end
$var wire 1 t In [8] $end
$var wire 1 s In [7] $end
$var wire 1 r In [6] $end
$var wire 1 q In [5] $end
$var wire 1 p In [4] $end
$var wire 1 o In [3] $end
$var wire 1 n In [2] $end
$var wire 1 m In [1] $end
$var wire 1 l In [0] $end
$var wire 1 N Shift $end
$var wire 1 Q Op [1] $end
$var wire 1 R Op [0] $end
$var reg 16 9! Out [15:0] $end
$upscope $end

$scope module row_8 $end
$var parameter 32 :! N $end
$var parameter 32 ;! O $end
$var parameter 32 <! S $end
$var wire 1 k In [15] $end
$var wire 1 j In [14] $end
$var wire 1 i In [13] $end
$var wire 1 h In [12] $end
$var wire 1 g In [11] $end
$var wire 1 f In [10] $end
$var wire 1 e In [9] $end
$var wire 1 d In [8] $end
$var wire 1 c In [7] $end
$var wire 1 b In [6] $end
$var wire 1 a In [5] $end
$var wire 1 ` In [4] $end
$var wire 1 _ In [3] $end
$var wire 1 ^ In [2] $end
$var wire 1 ] In [1] $end
$var wire 1 \ In [0] $end
$var wire 1 M Shift $end
$var wire 1 Q Op [1] $end
$var wire 1 R Op [0] $end
$var reg 16 =! Out [15:0] $end
$upscope $end
$upscope $end
$upscope $end
$upscope $end
$enddefinitions $end
#0
$dumpvars
b11010100100100 $
b1 %
b1 &
07
bx 8
1V
1W
b110101001001000 1!
b110101001001000 5!
b110101001001000 9!
b110101001001000 =!
b10000 !
b100 "
b10 #
b10000 :
b100 ;
b10 <
b10000 Y
b100 Z
b10 [
b10000 .!
b10 /!
b1 0!
b10000 2!
b10 3!
b10 4!
b10000 6!
b10 7!
b100 8!
b10000 :!
b10 ;!
b1000 <!
bx 9
b1 X
06
05
04
13
02
01
10
0/
0.
1-
0,
1+
0*
1)
1(
0'
1S
1T
0U
0\
0]
0^
1_
0`
0a
1b
0c
0d
1e
0f
1g
0h
1i
1j
0k
0l
0m
0n
1o
0p
0q
1r
0s
0t
1u
0v
1w
0x
1y
1z
0{
0|
0}
0~
1!!
0"!
0#!
1$!
0%!
0&!
1'!
0(!
1)!
0*!
1+!
1,!
0-!
1R
0Q
1P
0O
0N
0M
0L
0K
1J
0I
0H
1G
0F
0E
1D
0C
1B
0A
1@
1?
0>
0=
$end
#50
0V
0S
b110101001001000 8
#100
1V
1S
b101011001100011 $
b1101 %
b10 X
1N
1M
1L
1K
0J
1F
0D
1C
0?
1>
b1010110011000110 1!
b100100000000000 =!
b1010010010000000 9!
03
00
0-
0)
0_
0b
1c
0e
1f
0g
0j
1k
1}
1~
0!!
1%!
0'!
1(!
0,!
1-!
b1010110011000110 5!
b1000000000000000 =!
0+
0(
1'
1m
1n
0o
1s
0u
1v
0z
1{
b1100110001100000 9!
1a
1b
0c
1g
0i
1j
b110000000000000 =!
1)
1(
0'
#150
0V
0S
b1010110011000110000000000000 8
#200
1V
1S
b1000010001100101 $
b10 %
b11 X
0P
1O
0N
0M
0K
1J
0C
0@
0>
1=
b1100110001100000 =!
b1010110011000110 9!
b1011001100011000 5!
b1000010001100101 1!
11
10
1,
1+
0)
1'
1|
0}
1#!
0%!
0)!
0+!
0m
0n
1o
1p
0r
0s
1t
1u
0v
0w
1x
1]
1^
0a
1c
1i
0j
b1010110011000110 =!
b1011001100011000 9!
b1000110010100 5!
15
14
01
1/
1)
0(
1n
0o
1s
0u
0y
0{
0]
0^
1_
1`
0b
0c
1d
1e
0f
0g
1h
b1011001100011000 =!
b1000110010100 9!
05
04
13
12
00
0/
1.
1-
0,
0+
1*
1^
0_
1c
0e
0i
0k
b1000110010100 =!
14
03
1/
0-
0)
0'
#201
0W
0T
#250
0V
0S
b100001000110010100 8
#300
1V
1S
b1100110100001101 $
b110 %
b100 X
1N
1I
0G
0F
1D
1A
1>
b1100110100001101 1!
b1100101000000 9!
0^
0`
1b
0c
1g
1!!
0#!
0$!
1&!
1)!
1,!
b11010000110100 5!
b1100101000000 =!
04
02
10
0/
1+
1q
0s
0t
1v
1y
b100001101000000 9!
1e
0g
0h
1j
b100001101000000 =!
1-
0+
0*
1(
#350
0V
0S
b1100110100001101000000 8
#400
1V
1S
b101011111101101 $
b1100 %
b101 X
0O
1M
1G
1F
1E
1C
0A
1@
0=
b101011111101101 1!
b100000000000000 =!
b1100110100001101 5!
00
0.
0-
1l
1o
0p
0q
1t
1w
0x
0y
1z
1{
1#!
1$!
1%!
1'!
0)!
1*!
0-!
b101011111101101 5!
b1101000011010000 9!
1`
1c
0d
0e
1h
1k
1q
1r
1s
1u
0w
1x
0{
b111111011010000 9!
b1101000000000000 =!
1*
1'
1e
1f
1g
1i
0k
#450
0V
0S
b101011111101101000000000000 8
#500
1V
1S
b10010011000110 $
b101 %
b10 &
b110 X
0R
1Q
1P
0M
0L
1K
0I
0G
0D
0C
0@
1?
0>
b1001001100011 1!
b10101111110 9!
b111111011010000 =!
12
10
1/
1-
1,
1+
1)
0'
1]
1^
1_
1a
0c
1d
0e
0g
0h
0i
0j
1}
0~
0!!
0%!
0&!
0(!
0,!
b1001001100011 5!
b10101111110 =!
15
14
13
11
0/
1.
0-
0+
0*
0)
0(
1m
0n
0o
0s
0t
0v
0z
b100100110 9!
0_
0`
0b
0f
b100100110 =!
03
02
00
0,
#550
0V
0S
b11111 9
b11110 9
b11101 9
b11100 9
b11011 9
b11010 9
b1011111101101000000000000 8
b11001 9
b11000 9
b11111101101000000000000 8
b10111 9
b10110 9
b1111101101000000000000 8
b10101 9
b111101101000000000000 8
b10100 9
b11101101000000000000 8
b10011 9
b1101101000000000000 8
b10010 9
b101101000000000000 8
b10001 9
b1101000000000000 8
b10000 9
b1111 9
b10010011000110 8
b100100110 8
#600
1V
1S
b1111011111100101 $
b111 %
b111 X
1O
1L
0K
1G
1D
1C
1@
1>
1=
b1111101111110010 1!
b10010011000 5!
0l
0m
1o
1p
0q
0r
1s
0u
1v
0x
0|
1"!
1%!
1&!
1)!
1+!
1,!
1-!
b1111111011111100 5!
b1001001 9!
1\
0]
0^
1_
0a
1b
0d
1n
1q
1r
1u
1w
1x
1y
1z
1{
b1111111111101111 9!
b1001001 =!
16
05
04
13
01
10
0.
1]
1^
1a
1c
1d
1e
1f
1g
1h
1i
1j
1k
b1111111111101111 =!
15
14
11
1/
1.
1-
1,
1+
1*
1)
1(
1'
#650
0V
0S
b11111 9
b10000000000000000000000100100110 8
b11110 9
b11000000000000000000000100100110 8
b11101 9
b11100000000000000000000100100110 8
b11100 9
b11110000000000000000000100100110 8
b11011 9
b11111000000000000000000100100110 8
b11010 9
b11111100000000000000000100100110 8
b11001 9
b11111110000000000000000100100110 8
b11000 9
b11111111000000000000000100100110 8
b10111 9
b11111111100000000000000100100110 8
b10110 9
b11111111110000000000000100100110 8
b10101 9
b11111111111000000000000100100110 8
b10100 9
b11111111111100000000000100100110 8
b10011 9
b11111111111110000000000100100110 8
b10010 9
b11111111111111000000000100100110 8
b10001 9
b11111111111111100000000100100110 8
b10000 9
b11111111111111110000000100100110 8
b1111 9
b11111111111111111111011111100101 8
b11111111111111111111111111101111 8
#700
1V
1S
b1101101110001111 $
b10 %
b1000 X
0P
0N
1K
1I
0G
0F
0B
1A
0?
b1111111011111100 9!
b1101101110001111 1!
1|
1~
1!!
0"!
0#!
0$!
0+!
0\
0]
1`
0d
b1111111011111100 =!
b1111011011100011 5!
06
05
12
0.
1l
1m
0n
0o
0p
0w
b1111011011100011 9!
1\
1]
0^
0_
0`
0g
b1111011011100011 =!
16
15
04
03
02
0+
#750
0V
0S
b11111 9
b11110 9
b11101 9
b11100 9
b11011 9
b11010 9
b11001 9
b11000 9
b10111 9
b10110 9
b10101 9
b10100 9
b10011 9
b10010 9
b10001 9
b10000 9
b1111 9
b11111111111111111101101110001111 8
b11111111111111111111011011100011 8
#800
1V
1S
b111101011101000 $
b101 %
b0 &
b1001 X
0Q
1P
0O
1N
0L
0K
0J
1G
1F
0D
1?
0=
b1111010111010000 1!
b1101101110001111 5!
b110111000111111 9!
1^
1_
1`
0b
0c
1g
0h
0k
1n
1o
0q
0r
1t
0v
1w
0y
0|
0}
0~
0!!
1"!
1$!
0'!
1(!
0)!
1+!
b1111010111010000 5!
b1011100011111101 9!
b110111000111111 =!
14
13
12
00
0/
1+
0*
0'
0]
1b
1c
0e
0f
1h
0j
1k
0l
0m
0n
0o
1p
1r
0u
1v
0w
1y
b101110100001111 9!
b1011100011111101 =!
05
10
1/
0-
0,
1*
0(
1'
1]
0`
0a
0b
0c
1d
1f
0i
1j
0k
b101110100001111 =!
15
02
01
00
0/
1.
1,
0)
1(
0'
#850
0V
0S
b11110101110100001111 8
#900
1V
1S
b10100010111101 $
b1101 %
b1 &
b1010 X
1R
1M
1L
1J
1H
0F
0C
0@
0>
b101000101111010 1!
b101110100000000 9!
b111100000000 =!
06
05
04
03
1-
0*
0(
0\
0]
0^
0_
1}
1!!
1#!
0%!
0(!
0+!
0-!
b101000101111010 5!
b0 =!
0.
0-
0,
0+
1m
1o
1q
0s
0v
0y
0{
b1011110100000 9!
1a
1c
1e
0g
0j
b1010000000000000 =!
1)
1'
#950
0V
0S
b101000101111010000000000000 8
#1000
1V
1S
b110001001100011 $
b1010 %
b0 &
b1011 X
0R
0P
1O
0N
1K
0J
0I
0H
1F
0E
1C
0A
1>
b110001001100011 1!
b100010111101001 5!
b101000101111010 9!
b1010000000010111 =!
16
15
14
12
1]
1_
1`
1b
0c
0e
0f
1j
1l
0m
0p
1s
1v
0x
1|
0!!
0"!
0&!
1'!
0*!
1+!
b1000100110001101 5!
b100010111101001 9!
b111101001010001 =!
05
04
10
1-
1+
1*
1(
0'
1\
0]
0`
1c
1f
0h
1n
0q
0r
0v
1w
0z
1{
b1000100110001101 9!
b1110100101000101 =!
14
02
1.
0-
0*
1'
1^
0a
0b
0f
1g
0j
1k
b1000110110001001 =!
04
13
00
1/
1,
0)
0(
#1050
0V
0S
b1100010011000110110001001 8
#1100
1V
1S
b10000100100000 $
b1 &
b1100 X
1R
0L
0K
0F
1D
0C
0>
b10000100100000 1!
b1000100110001100 5!
b1000110100000000 =!
06
03
0/
0l
0|
0}
0$!
1&!
0'!
0,!
b1000010010000000 5!
b1000100110001100 9!
0\
0n
0o
0t
1v
0w
b1000010010000000 9!
b1000110000000000 =!
0.
0^
0_
0d
1f
0g
b1000000000000000 =!
0,
0+
#1150
0V
0S
b100001001000000000000000 8
#1200
1V
1S
b11111010010110 $
b11 %
b1101 X
1P
0M
1K
1J
1H
0G
1E
0D
1C
1B
1A
1@
b1000010010000000 =!
b111110100101100 1!
1/
1,
1~
1!!
1(!
1)!
1*!
1,!
b1111010010110000 5!
1p
1q
1x
1y
1z
b1111010010110000 9!
1`
1a
1h
1i
1j
b1111010010110000 =!
12
11
1*
1)
1(
#1250
0V
0S
b11111010010110000 8
#1300
1V
1S
b1101011001010011 $
b1011 %
b1110 X
1M
1L
0J
1F
0E
0A
0?
1>
1=
b1010110010100110 1!
b1011000000000000 =!
02
01
0/
0,
0(
1}
0!!
1%!
0&!
0*!
0,!
1-!
b1011001010011000 5!
1o
0q
1u
0v
0z
b1011001010011000 9!
1_
0a
1e
0f
0j
b1001100000000000 =!
1+
0)
#1350
0V
0S
b110101100101001100000000000 8
#1400
1V
1S
b100101000000010 $
b1110 %
b1111 X
0P
1N
0L
0H
0F
0B
1A
0@
0=
b10100110000000 9!
b100101000000010 1!
0~
0#!
0%!
1'!
0(!
0+!
1,!
0-!
0_
0`
1d
0e
1g
0h
0k
b1000000000000000 =!
b10100000001000 5!
0+
0*
0p
0s
0u
1w
0x
0{
b1000000010000000 9!
0d
0g
0i
1k
#1450
0V
0S
b10010100000001000000000000000 8
#1500
1V
1S
b111001011001111 $
b11 %
b10 &
b10000 X
0R
1Q
1P
0N
0M
1L
1J
1I
1F
1E
0A
1@
1?
b11100101100111 1!
b1001010000000 5!
b10100000001000 9!
b1000000010000000 =!
1/
1_
0c
1g
1i
0k
0o
1s
1u
0w
1x
0y
1|
1~
1#!
1$!
1&!
0'!
1*!
1+!
0,!
b111001011001 5!
b1001010000000 9!
b10100000001000 =!
13
0/
1+
1)
0'
0_
1c
1e
0g
1h
0i
1l
1o
1p
1r
0s
1v
1w
0x
b111001011001 9!
b1001010000000 =!
03
1/
1-
0+
1*
0)
1\
1_
1`
1b
0c
1f
1g
0h
b111001011001 =!
16
13
12
10
0/
1,
1+
0*
#1550
0V
0S
b11111 9
b11110 9
b11101 9
b11100 9
b10100000001000000000000000 8
b11011 9
b11010 9
b11001 9
b100000001000000000000000 8
b11000 9
b10111 9
b1000000000000000 8
b10110 9
b10101 9
b10100 9
b10011 9
b10010 9
b10001 9
b10000 9
b1111 9
b111001011001111 8
b111001011001 8
#1600
1V
1S
b101011001010 $
b1100 %
b10001 X
0P
0O
1N
1M
0L
0J
1A
0@
0?
0>
b1110 =!
b11100101 9!
b11100101100111 5!
b101011001010 1!
06
15
14
02
00
0-
0,
0+
0|
0~
1!!
0#!
1%!
0&!
1'!
0*!
0+!
1m
1n
0o
0p
1q
1t
0u
0v
1x
1y
1^
0_
0`
1a
1c
0e
0f
0g
b0 =!
b1110010110 9!
b101011001010 5!
05
04
03
0l
0n
1o
0q
1s
0t
1u
0x
0y
0\
1]
1`
0a
0b
1d
1e
b11 =!
b10101100 9!
16
15
0]
1_
0`
1a
0d
0e
b0 =!
06
05
#1650
0V
0S
b11111 9
b11110 9
b11101 9
b11100 9
b11011 9
b11010 9
b11001 9
b11000 9
b10111 9
b10110 9
b10101 9
b10100 9
b10011 9
b10010 9
b10001 9
b10000 9
b1111 9
b101011001010 8
b0 8
#1700
1V
1S
b110000110001010 $
b1 %
b0 &
b10010 X
0Q
1P
0N
0M
0F
1D
0C
0A
1?
1>
b1100001100010100 1!
b101011001010 9!
b10101100 =!
14
13
11
1/
1]
0^
0a
1b
1e
1g
0}
1~
0!!
1"!
0$!
0%!
1&!
0)!
1,!
1-!
b1100001100010100 5!
b101011001010 =!
15
04
01
10
1-
1+
0m
1n
0o
1p
0r
0s
1t
0w
1z
1{
b1100001100010100 9!
0]
1^
0_
1`
0b
0c
1d
0g
1j
1k
b1100001100010100 =!
05
14
03
12
00
0/
1.
0+
1(
1'
#1750
0V
0S
b1100001100010100 8
#1800
1V
1S
b1111001101111000 $
b1001 %
b11 &
b10011 X
1R
1Q
1M
0K
1H
1G
1F
0E
1C
1@
1=
b111100110111100 1!
b11000011 =!
16
15
04
02
10
1/
0.
0-
0(
0'
1!!
1#!
1%!
0'!
1)!
1*!
1+!
0-!
b111100110111100 5!
1o
1q
1s
0u
1w
1x
1y
0{
b111100110111100 9!
1_
1a
1c
0e
1g
1h
1i
0k
b1111001 =!
05
13
12
11
0/
#1850
0V
0S
b1111001 8
#1900
1V
1S
b110010110110110 $
b110 %
b10 &
b10100 X
0R
0P
1O
1N
0M
1K
1J
0I
0F
1E
0C
1B
0@
0=
b110010110110110 1!
b1111001101111 5!
b11110011011 9!
b111100110111100 =!
06
14
00
1/
1.
1+
1*
1)
1(
1\
1]
0^
0a
1e
1f
0g
0h
0i
0j
1l
1m
0p
1r
0s
0t
1u
1v
0y
0z
1}
0!!
1(!
0)!
0*!
b1100101101101 5!
b111100110 9!
b11110011011 =!
16
15
04
01
1-
1,
0+
0*
0)
0(
0\
1^
0_
0`
1a
1b
0e
0f
0m
1t
0u
0v
b110010110 9!
b111100110 =!
06
14
03
02
11
10
0-
0,
1`
0a
0b
b110010110 =!
12
01
00
#1950
0V
0S
b11111 9
b11110 9
b11101 9
b11100 9
b11011 9
b11010 9
b11001 9
b11000 9
b10111 9
b10110 9
b10101 9
b10100 9
b10011 9
b10010 9
b10001 9
b10000 9
b1111 9
b110010110110110 8
b110010110 8
#2000
1V
1S
b1010111100 $
b1010 %
b11 &
b10101 X
1R
0N
1M
0K
1I
0D
1C
0B
0?
0>
b1010111100 1!
b1100101101101 9!
b1 =!
16
05
04
02
0/
0.
1\
0]
1_
0`
1a
1b
0c
1g
1h
0}
1!!
0&!
1'!
0(!
0+!
0,!
b10101111 5!
b11001 =!
13
12
1m
0r
1s
0t
0w
0x
b10101111 9!
1]
0b
1c
0d
0g
0h
b0 =!
06
03
02
#2050
0V
0S
b0 8
#2100
1V
1S
b1011111001110001 $
b101 %
b10110 X
1P
0O
1N
0M
1L
0J
0I
1F
0E
1B
1A
1@
1?
1=
b10101111 =!
b1010 9!
b1010111100 5!
b101111100111000 1!
16
15
14
13
11
1/
0~
0%!
1&!
1(!
1)!
1*!
1,!
0l
0m
1p
1u
0\
0^
0a
0c
b1010 =!
b101011 9!
b101111100111000 5!
06
04
01
0/
0n
0s
1t
1v
1w
1x
1z
1\
1a
b101011 =!
b10111110011 9!
16
11
0_
1`
1b
1c
1d
1f
b10111110011 =!
03
12
10
1/
1.
1,
#2150
0V
0S
b10111110011 8
#2200
1V
1S
b110000000111011 $
b1010 %
b10 &
b10111 X
0R
0P
1O
0N
1M
1K
1I
0F
0C
0B
0A
0@
1>
0=
b110000000111011 1!
b1011111001110 5!
b101111100111000 9!
b101 =!
05
14
02
01
00
0/
0.
0,
0\
0]
1_
0b
0c
1e
1g
1h
1j
1m
1n
0p
0q
1r
1s
0w
0z
1|
1}
0&!
0'!
0(!
0)!
0*!
1+!
b1100000001110 5!
b1011111001110 9!
b1011111 =!
15
13
12
10
1]
1^
0`
0a
1b
1c
0g
0j
0r
0s
0t
0u
0v
1w
b1100000001110 9!
b10111 =!
03
00
0b
0c
0d
0e
0f
1g
b11000 =!
06
05
04
13
#2250
0V
0S
b11111 9
b11110 9
b11101 9
b11100 9
b11011 9
b11010 9
b11001 9
b11000 9
b10111 9
b10110 9
b10101 9
b10100 9
b10011 9
b10010 9
b10001 9
b10000 9
b1111 9
b110000000111011 8
b11000 8
#2300
1V
1S
b100101100010101 $
b1 %
b1 &
b11000 X
1R
0Q
1P
0O
0M
0K
1J
0I
0G
1D
1C
1A
0?
b1001011000101010 1!
b110000000111011 5!
b1100000001110 =!
15
14
02
1+
1*
1l
0n
1p
1q
0w
0x
1y
1z
0|
0"!
1'!
1(!
1*!
0+!
0,!
1-!
b1001011000101010 5!
b110000000111011 9!
1\
0^
1`
1a
0g
0h
1i
1j
0l
0p
1u
1v
1x
0y
0z
1{
b1001011000101010 9!
b110000000111011 =!
16
04
12
11
0+
0*
1)
1(
0\
0`
1e
1f
1h
0i
0j
1k
b1001011000101010 =!
06
02
1-
1,
1*
0)
0(
1'
#2350
0V
0S
b1001011000101010 8
#2400
1V
1S
b11101100010 $
b1100 %
b11 &
b11001 X
1Q
0P
1N
1M
0L
1K
0J
0H
1G
1F
1B
0A
0>
b11101100010 1!
b100101100010 9!
b10010110 =!
14
03
12
01
1/
0-
0,
0*
0'
0_
1b
1d
0e
0f
1g
0h
0k
0!!
1$!
1&!
0*!
0-!
b11101100010 5!
b1001 =!
16
05
04
13
02
0/
0o
1r
1t
0x
0{
b1110110 9!
1^
1`
0d
0g
b0 =!
06
03
#2450
0V
0S
b0 8
#2500
1V
1S
b1010000110001111 $
b1000 %
b11010 X
0N
1L
1J
1I
0G
0F
1E
0C
0B
1?
1=
b1010000110001111 1!
b11101100010 9!
0^
0`
1d
1e
1f
1|
1~
1!!
0#!
0$!
1%!
0'!
0(!
1+!
1-!
b1010000110001111 5!
b111 =!
16
15
14
1l
1n
1o
0q
0r
1s
0u
0v
1y
1{
b1010000110001111 9!
1\
1^
1_
0a
0b
1c
0e
0f
1i
1k
b10100001 =!
05
04
11
1/
#2550
0V
0S
b10100001 8
#2600
1V
1S
b101011010011111 $
b1100 %
b11011 X
1N
1H
0D
1C
1B
1@
0?
1>
0=
b101011010011111 1!
b101000011000 9!
0\
0]
0^
1`
0c
0d
1e
1g
0i
0k
1"!
0&!
1'!
1(!
1*!
0+!
1,!
0-!
b101011010011111 5!
b1010 =!
06
15
13
01
0/
1p
0t
1u
1v
1x
0y
1z
0{
b10101101001 9!
1\
0`
1a
1b
1d
0e
1f
0g
b101 =!
16
05
14
03
#2650
0V
0S
b101 8
#2700
1V
1S
b11011110001001 $
b1001 %
b0 &
b11100 X
0R
0Q
1P
0N
0K
0J
0H
1D
1?
0>
b110111100010010 1!
b101011010011111 9!
b110100100000101 =!
1.
1+
1)
1(
1]
1^
1`
0a
0b
1c
0d
1e
1h
1j
0|
0~
0!!
0%!
1&!
1)!
0*!
1+!
b110111100010010 5!
b1001111101010110 =!
06
15
12
10
1-
1,
1*
0)
0(
1'
0l
0n
0o
0s
1t
1w
0x
1y
b110111100010010 9!
0\
0^
0_
0c
1d
1g
0h
1i
b1001001101111 =!
16
13
02
11
0.
0,
0+
0'
#2750
0V
0S
b11011110001001001101111 8
#2800
1V
1S
b1100000011010111 $
b1 %
b10 &
b11101 X
1Q
0M
1K
1J
0I
1H
1F
0D
0C
0B
0@
0?
1>
1=
b1110000001101011 1!
b110111100010010 =!
06
04
03
12
01
00
1.
1,
1+
0*
1)
1(
1|
1!!
0"!
1#!
1$!
0&!
0'!
0(!
0)!
1-!
b1110000001101011 5!
1l
1o
0p
1q
1r
0t
0u
0v
0w
1{
b1110000001101011 9!
1\
1_
0`
1a
1b
0d
0e
0f
0g
1k
b1110000001101011 =!
16
13
02
11
10
0.
0-
0,
0+
1'
#2850
0V
0S
b11111 9
b10000000011011110001001001101111 8
b11110 9
b11000000011011110001001001101111 8
b11101 9
b11100000011011110001001001101111 8
b11100 9
b11110000011011110001001001101111 8
b11011 9
b11111000011011110001001001101111 8
b11010 9
b11111100011011110001001001101111 8
b11001 9
b11111110011011110001001001101111 8
b11000 9
b11111111011011110001001001101111 8
b10111 9
b11111111111011110001001001101111 8
b10110 9
b10101 9
b10100 9
b11111111111111110001001001101111 8
b10011 9
b10010 9
b10001 9
b10000 9
b1111 9
b11111111111111111100000011010111 8
b11111111111111111110000001101011 8
